{
  "data": [
    {
      "id": 737290,
      "image": {
        "url": "https://tattoodo-mobile-app.imgix.net/images/posts/20181023_JuKFl7dQaCPu4TH.png",
        "width": 931,
        "height": 1396
      },
      "counts": {
        "likes": 16,
        "comments": 0,
        "pins": 35
      },
      "created_at": "2018-10-23T22:10:26+00:00",
      "updated_at": "2018-10-23T22:10:26+00:00",
      "uploader": {
        "id": 4819611,
        "name": "Joe Allison",
        "username": "joeatattoo",
        "image_url": "https://tattoodo-mobile-app.imgix.net/images/profile/images/20181023_XGgKCTnTdKHAlJo.png",
        "user_type": "artist",
        "is_verified": false,
        "verification_level": 0,
        "artist_id": 341450,
        "artist_plan": "pro",
        "allow_bookings": true,
        "allow_messages": false
      },
      "client": null,
      "artist": {
        "id": 4819611,
        "name": "Joe Allison",
        "username": "joeatattoo",
        "image_url": "https://tattoodo-mobile-app.imgix.net/images/profile/images/20181023_XGgKCTnTdKHAlJo.png",
        "user_type": "artist",
        "is_verified": false,
        "verification_level": 0,
        "artist_id": 341450,
        "artist_plan": "pro",
        "allow_bookings": true,
        "allow_messages": false,
        "counts": {
          "posts": 12,
          "mentions": 0,
          "comments": 0,
          "following": 13,
          "followers": 6
        }
      },
      "shop": {
        "id": 98135,
        "user_id": 1580907,
        "username": "In_Ink_We_Trust",
        "slug": "In_Ink_We_Trust",
        "name": "In Ink We Trust",
        "description": "Tattoo Studio Eltham SE9 1TX",
        "reviews_average": 0,
        "contact": {
          "phone": "0208 850 0575",
          "email": "",
          "website": "http://www.ininkwetrust.co.uk/"
        },
        "address": {
          "address1": "219 Eltham High Street",
          "address2": "",
          "zip_code": "SE9 1tx",
          "city": "London",
          "state": "",
          "country": "GB"
        },
        "image_url": "https://tattoodo-mobile-app.imgix.net/images/profile/images/128526887318522_T9Kvs8YE85.jpg",
        "hero_image_url": "",
        "hero_image_offset_top": 0,
        "cropped_hero_image_url": "",
        "timezone": "Europe/London",
        "opening_hours": {
          "monday": {
            "open": "10:00:00",
            "closed": "18:00:00"
          },
          "tuesday": {
            "open": "10:00:00",
            "closed": "18:00:00"
          },
          "wednesday": {
            "open": "10:00:00",
            "closed": "18:00:00"
          },
          "thursday": {
            "open": "10:00:00",
            "closed": "18:00:00"
          },
          "friday": {
            "open": "10:00:00",
            "closed": "18:00:00"
          },
          "saturday": {
            "open": "10:00:00",
            "closed": "18:00:00"
          },
          "sunday": null
        },
        "consultation_hours": null,
        "portfolio_preview": [],
        "counts": {
          "followers": 2,
          "artists": 2,
          "reviews": 0,
          "posts": 0
        },
        "location": {
          "latitude": 51.4509749,
          "longitude": 0.0598479
        },
        "verified": {
          "set": false
        },
        "claimed": {
          "set": true,
          "at": "2018-10-23T21:55:11+00:00"
        },
        "created_at": "2018-03-22T03:34:23+00:00",
        "updated_at": "2018-10-23T22:16:05+00:00",
        "plan": "free",
        "distance": null,
        "allow_messages": true,
        "allow_bookings": false,
        "allow_timeslot_bookings": false,
        "social_links": {
          "facebook_link": null,
          "twitter_link": null,
          "instagram_link": null
        }
      },
      "popularity": 0,
      "explicit": false,
      "classification": {
        "hashtags": [
          "tattoo",
          "tattooartist",
          "tattoodesign",
          "art",
          "tattooistlondon",
          "tattoouk",
          "TattooLondon",
          "blackandgreytattoo",
          "picoftheday",
          "colourfultattoo",
          "colourtattoo",
          "traditionaltattoo",
          "oldschooltattoo",
          "egomachines",
          "stencilstuff",
          "tattoogoo",
          "besttattoo",
          "mandala",
          "dotwork",
          "letteringtattoo",
          "writingtattoo",
          "tattoostudio",
          "photooftheday",
          "like4like",
          "follow4follow",
          "handpoke",
          "D",
          "uktta"
        ],
        "styles": [
          "black_and_gray",
          "traditional",
          "dotwork",
          "lettering"
        ],
        "motifs": [
          "patterns"
        ]
      },
      "share_url": "https://www.tattoodo.com/p/737290/",
      "is_users": false
    },
    {
      "id": 737288,
      "description": "\n.\n.\n.\n.\n.\n\n#tattoo #tattooartist #tattoodesign #art #tattooistlondon #tattoouk #tattoolondon #blackandgreytattoo #picoftheday #colourfultattoo #colourtattoo #traditionaltattoo #oldschooltattoo #egomachines #stencilstuff #tattoogoo  #besttattoo #mandala #dotwork #letteringtattoo #writingtattoo #tattoostudio #photooftheday #like4like\n#follow4follow #handpoke #d_world_of_ink\n#uktta\n\n",
      "image": {
        "url": "https://tattoodo-mobile-app.imgix.net/images/posts/20181023_XJZ632rFbPsYlJ8.png",
        "width": 926,
        "height": 1389
      },
      "counts": {
        "likes": 15,
        "comments": 0,
        "pins": 22
      },
      "created_at": "2018-10-23T22:09:25+00:00",
      "updated_at": "2018-10-23T22:09:25+00:00",
      "uploader": {
        "id": 4819611,
        "name": "Joe Allison",
        "username": "joeatattoo",
        "image_url": "https://tattoodo-mobile-app.imgix.net/images/profile/images/20181023_XGgKCTnTdKHAlJo.png",
        "user_type": "artist",
        "is_verified": false,
        "verification_level": 0,
        "artist_id": 341450,
        "artist_plan": "pro",
        "allow_bookings": true,
        "allow_messages": false
      },
      "client": null,
      "artist": {
        "id": 4819611,
        "name": "Joe Allison",
        "username": "joeatattoo",
        "image_url": "https://tattoodo-mobile-app.imgix.net/images/profile/images/20181023_XGgKCTnTdKHAlJo.png",
        "user_type": "artist",
        "is_verified": false,
        "verification_level": 0,
        "artist_id": 341450,
        "artist_plan": "pro",
        "allow_bookings": true,
        "allow_messages": false,
        "counts": {
          "posts": 12,
          "mentions": 0,
          "comments": 0,
          "following": 13,
          "followers": 6
        }
      },
      "shop": {
        "id": 98135,
        "user_id": 1580907,
        "username": "In_Ink_We_Trust",
        "slug": "In_Ink_We_Trust",
        "name": "In Ink We Trust",
        "description": "Tattoo Studio Eltham SE9 1TX",
        "reviews_average": 0,
        "contact": {
          "phone": "0208 850 0575",
          "email": "",
          "website": "http://www.ininkwetrust.co.uk/"
        },
        "address": {
          "address1": "219 Eltham High Street",
          "address2": "",
          "zip_code": "SE9 1tx",
          "city": "London",
          "state": "",
          "country": "GB"
        },
        "image_url": "https://tattoodo-mobile-app.imgix.net/images/profile/images/128526887318522_T9Kvs8YE85.jpg",
        "hero_image_url": "",
        "hero_image_offset_top": 0,
        "cropped_hero_image_url": "",
        "timezone": "Europe/London",
        "opening_hours": {
          "monday": {
            "open": "10:00:00",
            "closed": "18:00:00"
          },
          "tuesday": {
            "open": "10:00:00",
            "closed": "18:00:00"
          },
          "wednesday": {
            "open": "10:00:00",
            "closed": "18:00:00"
          },
          "thursday": {
            "open": "10:00:00",
            "closed": "18:00:00"
          },
          "friday": {
            "open": "10:00:00",
            "closed": "18:00:00"
          },
          "saturday": {
            "open": "10:00:00",
            "closed": "18:00:00"
          },
          "sunday": null
        },
        "consultation_hours": null,
        "portfolio_preview": [],
        "counts": {
          "followers": 2,
          "artists": 2,
          "reviews": 0,
          "posts": 0
        },
        "location": {
          "latitude": 51.4509749,
          "longitude": 0.0598479
        },
        "verified": {
          "set": false
        },
        "claimed": {
          "set": true,
          "at": "2018-10-23T21:55:11+00:00"
        },
        "created_at": "2018-03-22T03:34:23+00:00",
        "updated_at": "2018-10-23T22:16:05+00:00",
        "plan": "free",
        "distance": null,
        "allow_messages": true,
        "allow_bookings": false,
        "allow_timeslot_bookings": false,
        "social_links": {
          "facebook_link": null,
          "twitter_link": null,
          "instagram_link": null
        }
      },
      "popularity": 0,
      "explicit": false,
      "classification": {
        "hashtags": [
          "tattoo",
          "tattooartist",
          "tattoodesign",
          "art",
          "tattooistlondon",
          "tattoouk",
          "TattooLondon",
          "blackandgreytattoo",
          "picoftheday",
          "colourfultattoo",
          "colourtattoo",
          "traditionaltattoo",
          "oldschooltattoo",
          "egomachines",
          "stencilstuff",
          "tattoogoo",
          "besttattoo",
          "mandala",
          "dotwork",
          "letteringtattoo",
          "writingtattoo",
          "tattoostudio",
          "photooftheday",
          "like4like",
          "follow4follow",
          "handpoke",
          "D",
          "uktta"
        ],
        "styles": [
          "black_and_gray",
          "traditional",
          "dotwork",
          "lettering"
        ],
        "motifs": [
          "patterns"
        ]
      },
      "share_url": "https://www.tattoodo.com/p/737288/",
      "is_users": false
    }
  ],
  "meta": {
    "pagination": {
      "total": 2400,
      "count": 10,
      "per_page": 10,
      "current_page": 1,
      "total_pages": 240,
      "links": {
        "next": "/api/v2/search/posts?q=dotwork&page=2"
      }
    }
  }
}